[
  {
    "name": "Menu.DASHBOARD",
    "alias": "dashboard",
    "state": "app.dashboard",
    "action": "all",
    "icon": "dashboard"
  },
  {
    "name": "Menu.ADMINISTRATORS",
    "alias": "administrators",
    "state": "app.admins",
    "action": "list",
    "icon": "users",
    "childs": [
      {
        "name": "SubMenu.ADMIN_LIST",
        "alias": "administrators-admin",
        "state": "app.admins.list",
        "action": "all"
      },
      {
        "name": "SubMenu.SUB_ADMIN_LIST",
        "alias": "administrators-subadmin",
        "state": "app.admins.sub",
        "action": "all"
      }
    ]
  },
  {
    "name": "Menu.USERS",
    "alias": "users",
    "action": "list",
    "state": "app.users",
    "icon": "child",
    "childs": [
      {
        "name": "SubMenu.USER_LIST",
        "action": "all",
        "state": "app.users.list"
      },
      {
        "name": "SubMenu.ADD_NEW_USER",
        "action": "add",
        "state": "app.users.add"
      }
    ]
  },
  {
    "name": "Menu.TASKERS",
    "alias": "tasker",
    "state": "app.taskers",
    "icon": "users",
    "action": "list",
    "childs": [
      {
        "name": "SubMenu.TASKER_LIST",
        "alias": "list",
        "action": "all",
        "state": "app.taskers.list"
      },
      {
        "name": "SubMenu.ADD_NEW_TASKER",
        "action": "add",
        "state": "app.taskers.add"
      }
    ]
  },
  {
    "name": "Menu.REVIEWS",
    "alias": "reviews",
    "state": "app.reviews.list",
    "action": "list",
    "icon": "pencil-square-o"
  },
  {
    "name": "Menu.TASKS",
    "alias": "tasks",
    "state": "app.tasks.viewsTasks",
    "action": "list",
    "icon": "briefcase"
  },
  {
    "name": "Menu.EARNINGS",
    "alias": "earnings",
    "state": "app.earnings.list",
    "action": "list",
    "icon": "dollar"
  },
  {
    "name": "Menu.PAGES",
    "alias": "page",
    "state": "app.pages",
    "action": "list",
    "icon": "folder",
    "childs": [
      {
        "name": "SubMenu.ALL_PAGES",
        "alias": "page",
        "action": "all",
        "state": "app.pages.list"
      },
      {
        "name": "SubMenu.ADD_NEW_PAGE",
        "action": "add",
		"alias": "page",
        "state": "app.pages.action"
      },
      {
        "name": "SubMenu.LIST_CATEGORY_PAGE",
        "action": "list",
		"alias": "page",
        "state": "app.pages.categoryPageList"
      },
      {
        "name": "SubMenu.ADD_TRANSLATE_PAGE",
        "action": "add",
		      "alias": "page",
        "state": "app.pages.edittranslate"
      }
    ]
  },
  {
    "name": "Menu.SLIDER",
    "alias": "slider",
    "action": "list",
    "state": "app.sliders",
    "icon": "picture-o",
    "childs": [
      {
        "name": "SubMenu.ALL_SLIDERS",
        "alias": "slider",
        "action": "all",
        "state": "app.sliders.viewsSlider"
      }
    ]
  },
  {
    "name": "Menu.EMAILTEMPLATE",
    "alias": "etemplate",
    "action": "list",
    "state": "app.emailtemplate",
    "icon": "envelope",
    "childs": [
      {
        "name": "SubMenu.EMAILTEMPLATE_LIST",
        "alias": "etemplate",
        "action": "all",
        "state": "app.emailtemplate.list"
      },
      {
        "name": "SubMenu.EMAILTEMPLATE_ADD",
        "alias": "view",
        "action": "add",
        "state": "app.emailtemplate.action({action:'add'})"
      }
    ]
  },
  {
    "name": "Menu.CATEGORIES",
    "alias": "categories",
    "action": "list",
    "state": "app.categories",
    "icon": "tags",
    "childs": [
      {
        "name": "SubMenu.MAIN_CATEGORY",
        "alias": "categories",
        "action": "all",
        "state": "app.categories.list"
      },
      {
        "name": "SubMenu.SUB_CATEGORY",
        "alias": "add",
        "action": "all",
        "state": "app.categories.subcategorylist"
      }
    ]
  },
  {
    "name": "Menu.COUPONS",
    "alias": "coupons",
    "action": "list",
    "state": "app.coupons",
    "icon": "gift",
    "childs": [
      {
        "name": "SubMenu.COUPONS_LIST",
        "action": "all",
        "state": "app.coupons.list"
      },
      {
        "name": "SubMenu.ADD_COUPONS",
        "action": "add",
        "state": "app.coupons.action"
      }
    ]
  },
  {
    "name": "Menu.PUSHNOTIFICATION",
    "alias": "notification",
    "action": "list",
    "state": "app.pushnotifications",
    "icon": "send",
    "childs": [
      {
        "name": "SubMenu.USER",
        "action": "list",
        "state": "app.pushnotifications.user"
      },
      {
        "name": "SubMenu.TASKER",
        "action": "list",
        "state": "app.pushnotifications.tasker"
      },
      {
        "name": "SubMenu.PUSHNOTIFICATION-TEMPLATES",
        "action": "add",
        "state": "app.pushnotifications.templates"
      }
    ]
  },
  {
    "name": "Menu.TASKER_MANAGEMENT",
    "alias": "tasker_management",
    "action": "all",
    "state": "app.tasker_management",
    "icon": "users",
    "childs": [
      {
        "name": "SubMenu.EXPERIENCE",
        "alias": "view",
        "action": "all",
        "state": "app.tasker_management.experience.list"
      },
      {
        "name": "SubMenu.QUESTIONS",
        "alias": "view",
        "action": "all",
        "state": "app.tasker_management.question.viewsQuestion"
      }
    ]
  },
  {
    "name": "Menu.SETTINGS",
    "alias": "settings",
    "action": "all",
    "state": "app.settings",
    "icon": "gears",
    "childs": [
      {
        "name": "SubMenu.GENERAL_SETTINGS",
        "alias": "view",
        "action": "all",
        "state": "app.settings.generalSettings"
      },
      {
        "name": "SubMenu.SEO_SETTINGS",
        "alias": "view",
        "action": "all",
        "state": "app.settings.seoSettings"
      },
      {
        "name": "SubMenu.SMTP_SETTINGS",
        "alias": "view",
        "action": "all",
        "state": "app.settings.smtpSettings"
      },
      {
        "name": "SubMenu.SMS_SETTINGS",
        "alias": "view",
        "action": "all",
        "state": "app.settings.smssettings"
      },
      {
        "name": "SubMenu.SOCIAL_NETWORKS_SETTINGS",
        "alias": "view",
        "action": "all",
        "state": "app.settings.SocialNetworksSettings"
      },
      {
        "name": "SubMenu.CURRENCY_SETTINGS",
        "alias": "view",
        "action": "all",
        "state": "app.settings.currencySettings.list"
      },
      {
        "name": "SubMenu.LANGUAGE_SETTINGS",
        "alias": "view",
        "action": "all",
        "state": "app.settings.languageSettings.list"
      },
      {
        "name": "SubMenu.CANCELLATION",
        "alias": "cancellation",
        "state": "app.settings.cancellation.list",
        "action": "list"
      },
      {
        "name": "Menu.APPEARANCE",
        "alias": "images",
        "state": "app.settings.images.imagelist",
        "action": "list"
      },
      {
        "name": "SubMenu.POSTHEADER_LIST",
        "alias": "view",
        "action": "all",
        "state": "app.postheader.viewpostheader"
      },
      {
        "name": "SubMenu.MOBILE_SETTINGS",
        "alias": "view",
        "action": "all",
        "state": "app.settings.mobileContent"
      }
    ]
  },
  {
    "name": "Menu.NEWSLETTER",
    "alias": "newsletter",
    "action": "all",
    "state": "app.newsletter",
    "icon": "comment",
    "childs": [
      {
        "name": "SubMenu.SUBSCRIBER",
        "alias": "view",
        "action": "all",
        "state": "app.newsletter.subscriber"
      }
    ]
  },
  {
    "name": "Menu.PAYMENT_GATEWAY",
    "alias": "payment",
    "action": "all",
    "state": "app.paymentgateway.list",
    "icon": "credit-card"
  },
  {
    "name": "Menu.TASKSPOST",
    "alias": "taskspost",
    "action": "list",
    "state": "app.posttasks",
    "icon": "credit-card",
    "childs": [
      {
        "name": "SubMenu.TASKSPOST LIST",
        "alias": "taskspost",
        "action": "all",
        "state": "app.posttasks.list"
      }
    ]
  },
  {
    "name": "Menu.PEOPLECOMMENTS",
    "alias": "peoplecmd",
    "action": "list",
    "state": "app.peoplecomment",
    "icon": "users",
    "childs": [
      {
        "name": "SubMenu.PEOPLE_COMMENT_LIST",
        "alias": "peoplecmd",
        "action": "all",
        "state": "app.peoplecomment.list"
      }
    ]
  }
]
